{
	"additionalNodes": [],
	"additionalParameters": {
		"root": {
			"height": 88,
			"width": 180
		}
	},
	"inputs": [],
	"outputs": [],
	"properties": {
		"MCGejmtAtTIAZ6j2a9xiV30vA2LcL27h": {
			"height": 92,
			"title": "store",
			"width": 131,
			"x": 466,
			"y": -222
		},
		"MZf1SCEZmomZZvrD1qRftD9OY2DCoifS": {
			"height": 90,
			"title": "Common.relativeMove",
			"width": 418,
			"x": 467,
			"y": 100
		},
		"aguTeEu1DsDGLJYXZLI8s1tWAxv3wYeI": {
			"height": 60,
			"title": "sequence",
			"width": 143,
			"x": 237,
			"y": 11
		},
		"dMe0XPOAjQ2D0SmOLsNCTGvTyC22y6Fn": {
			"height": 94,
			"title": "store",
			"width": 214,
			"x": 437,
			"y": -131
		},
		"eQBxEBiCBRKGPXVy8fQUxLM0WmLVRJKq": {
			"height": 94,
			"title": "store",
			"width": 249,
			"x": 470,
			"y": 210
		},
		"npQmFm6ZRB6s49069fZ3w9FQEmUkaVyw": {
			"height": 92,
			"title": "store",
			"width": 199,
			"x": 458,
			"y": 5
		},
		"w26IUsuOBui6r6z3N53I5kWvLeebvdQP": {
			"height": 73,
			"title": "echo",
			"width": 137,
			"x": 457,
			"y": -53
		}
	},
	"roles": [ {
		"categories": [ "Test.battle Commander" ],
		"name": "Role 0"
	} ],
	"root": {
		"children": [ {
			"children": [],
			"id": "MCGejmtAtTIAZ6j2a9xiV30vA2LcL27h",
			"nodeType": "luaCommand",
			"parameters": [ {
				"name": "var",
				"value": "x"
			}, {
				"name": "value",
				"value": "20"
			}, {
				"name": "scriptName",
				"value": "store"
			} ],
			"scriptName": "store"
		}, {
			"children": [],
			"id": "dMe0XPOAjQ2D0SmOLsNCTGvTyC22y6Fn",
			"nodeType": "luaCommand",
			"parameters": [ {
				"name": "var",
				"value": "windData"
			}, {
				"name": "value",
				"value": "Sensors.map.Wind()"
			}, {
				"name": "scriptName",
				"value": "store"
			} ],
			"scriptName": "store"
		}, {
			"children": [],
			"id": "w26IUsuOBui6r6z3N53I5kWvLeebvdQP",
			"nodeType": "luaCommand",
			"parameters": [ {
				"name": "msg",
				"value": "windData"
			}, {
				"name": "scriptName",
				"value": "echo"
			} ],
			"scriptName": "echo"
		}, {
			"children": [],
			"id": "npQmFm6ZRB6s49069fZ3w9FQEmUkaVyw",
			"nodeType": "luaCommand",
			"parameters": [ {
				"name": "var",
				"value": "multiplier"
			}, {
				"name": "value",
				"value": "windData.strength"
			}, {
				"name": "scriptName",
				"value": "store"
			} ],
			"scriptName": "store"
		}, {
			"children": [],
			"id": "MZf1SCEZmomZZvrD1qRftD9OY2DCoifS",
			"nodeType": "luaCommand",
			"parameters": [ {
				"name": "dist",
				"value": "{x=multiplier*windData.dirX,z=multiplier*windData.dirZ}"
			}, {
				"name": "fight",
				"value": "false"
			}, {
				"name": "scriptName",
				"value": "Common.relativeMove"
			} ],
			"scriptName": "Common.relativeMove"
		}, {
			"children": [],
			"id": "eQBxEBiCBRKGPXVy8fQUxLM0WmLVRJKq",
			"nodeType": "luaCommand",
			"parameters": [ {
				"name": "var",
				"value": "variableForDebug"
			}, {
				"name": "value",
				"value": "example.ExampleDebug()"
			}, {
				"name": "scriptName",
				"value": "store"
			} ],
			"scriptName": "store"
		} ],
		"id": "aguTeEu1DsDGLJYXZLI8s1tWAxv3wYeI",
		"nodeType": "sequence",
		"parameters": []
	}
}